Visualização de Dados
…
Visualização de Dados
Luiz Fernando Coelho Passos

Base de dados

A base de dados foi obtida no site do Instituto Nacional de Metereologia.

library(readr)
library(dplyr)
library(ggplot2)

dados <- read_csv("dados.txt")
dados

## # A tibble: 743 x 20
##    codigo_estacao data  hora  temp_inst temp_max temp_min umid_inst
##    <chr>          <chr> <chr>     <dbl>    <dbl>    <dbl>     <dbl>
##  1 A627           01/0… 18         30.5     31       29.5        58
##  2 A627           01/0… 10         22.2     22.2     21.6        86
##  3 A627           01/0… 17         29.8     30.7     28.9        53
##  4 A627           01/0… 06         23.1     23.2     22.2        81
##  5 A627           01/0… 00         24.9     24.9     24.7        72
##  6 A627           01/0… 23         26       26.7     26          78
##  7 A627           01/0… 02         24.6     24.7     24.6        74
##  8 A627           01/0… 14         27.5     27.5     26.4        69
##  9 A627           01/0… 09         21.7     22.7     21.6        88
## 10 A627           01/0… 16         28.9     29.3     28.1        63
## # … with 733 more rows, and 13 more variables: umid_max <dbl>,
## #   umid_min <dbl>, pto_orvalho_inst <dbl>, pto_orvalho_max <dbl>,
## #   pto_orvalho_min <dbl>, pressao <dbl>, pressao_max <dbl>,
## #   pressao_min <dbl>, vento_direcao <dbl>, vento_vel <dbl>,
## #   vento_rajada <dbl>, radiacao <dbl>, precipitacao <dbl>
…
