Visualização de Dados
…
# Base de dados separada por UF - Unidade da Federação
base_uf <- read_csv("https://raw.githubusercontent.com/luizfcp/uff/master/Visualizacao%20de%20Dados/Atividade%20Final/data/base%20por%20uf.csv")

# Base de dados separada por GR - Grande Região, apenas com o número de nascidos vivos por mês
base_gr <- read_csv("https://raw.githubusercontent.com/luizfcp/uff/master/Visualizacao%20de%20Dados/Atividade%20Final/data/base%20por%20gr.csv") %>% 
  select(-X)

# Base de dados separada por GR - Grande Região, com a idade da mãe na ocasião do parto, sexo do nascido vivo e local de nasicmento
base_completa <- read_csv("https://raw.githubusercontent.com/luizfcp/uff/master/Visualizacao%20de%20Dados/Atividade%20Final/data/base%20por%20gr%20-%20idade%20da%20mae%2C%20sexo%20e%20local%20de%20nascimento.csv") %>% 
  mutate(domicilio = as.numeric(domicilio))

base_uf

## # A tibble: 405 x 14
##      ano Janeiro Fevereiro Março Abril  Maio Junho Julho Agosto Setembro
##    <dbl>   <dbl>     <dbl> <dbl> <dbl> <dbl> <dbl> <dbl>  <dbl>    <dbl>
##  1  2003    2142      1866  2385  2343  2323  2184  2199   2171     2231
##  2  2004    2177      2078  2190  2107  2250  2150  2139   2097     2096
##  3  2005    2059      2162  2477  2361  2371  2227  2153   2220     2173
##  4  2006    1999      1924  2275  2264  2376  2195  1921   1955     2196
##  5  2007    2331      2141  2417  2210  2232  2065  2108   2038     2001
##  6  2008    2024      1874  2295  2096  2144  2070  2071   2118     2132
##  7  2009    2222      2077  2379  2258  1961  1949  2048   2080     2137
##  8  2010    1910      1764  2195  1994  2227  2069  2177   2075     2099
##  9  2011    2098      2019  2351  2299  2117  1966  1919   2042     1942
## 10  2012    2121      2126  2258  2185  2218  2190  2157   2001     1993
## # ... with 395 more rows, and 4 more variables: Outubro <dbl>,
## #   Novembro <dbl>, Dezembro <dbl>, UF <chr>

base_gr

## # A tibble: 75 x 14
##      ano Janeiro Fevereiro Março Abril  Maio Junho Julho Agosto Setembro
##    <dbl>   <dbl>     <dbl> <dbl> <dbl> <dbl> <dbl> <dbl>  <dbl>    <dbl>
##  1  2003   21791     19117 22186 21145 21790 19849 20235  19327    19122
##  2  2004   21830     20017 21697 20831 21185 19644 19544  19160    18797
##  3  2005   22665     20481 24394 23387 24019 22298 21227  21211    20823
##  4  2006   22775     20320 23545 22877 23114 21817 21038  21033    21125
##  5  2007   24598     21796 24270 22574 22794 22076 22016  21863    21110
##  6  2008   22780     20983 23687 23686 23917 22507 22407  22353    22827
##  7  2009   24338     21459 24786 23492 22623 21858 21834  21961    22792
##  8  2010   23851     21462 24422 23234 22896 21640 21854  21582    22463
##  9  2011   23170     21133 24064 23696 24704 23275 22934  23293    22665
## 10  2012   24967     22716 24518 23803 24203 22663 22980  23294    22691
## # ... with 65 more rows, and 4 more variables: Outubro <dbl>,
## #   Novembro <dbl>, Dezembro <dbl>, GR <chr>

base_completa

## # A tibble: 64,800 x 7
##    grande_regiao idade_da_mae_na~   ano mes_do_nascimen~ sexo  hospital
##    <chr>         <chr>            <dbl> <chr>            <chr>    <dbl>
##  1 Norte         Menos de 15 anos  2003 Janeiro          Home~       84
##  2 Norte         Menos de 15 anos  2003 Janeiro          Mulh~      113
##  3 Norte         Menos de 15 anos  2003 Fevereiro        Home~       90
##  4 Norte         Menos de 15 anos  2003 Fevereiro        Mulh~       90
##  5 Norte         Menos de 15 anos  2003 Março            Home~      124
##  6 Norte         Menos de 15 anos  2003 Março            Mulh~       96
##  7 Norte         Menos de 15 anos  2003 Abril            Home~       94
##  8 Norte         Menos de 15 anos  2003 Abril            Mulh~       91
##  9 Norte         Menos de 15 anos  2003 Maio             Home~      117
## 10 Norte         Menos de 15 anos  2003 Maio             Mulh~      104
## # ... with 64,790 more rows, and 1 more variable: domicilio <dbl>
…
